40
40
38
34
33
38
46
55
54
45
44
54
62
62
56
47
42
50
60
59
50
45
48
58
66
66
62
55
49
47
49
52
50
43
39
45
52
50
41
34
37
50
59
54
40
27
29
46
62
65
62
60
61
64
60
51
46
46
47
50
49
47
44
43
51
63
67
59
47
39
37
40
48
55
55
47
36
32
37
45
49
52
57
53
40
32
35
45
52
48
35
31
45
62
62
49
36
31
34
36
